%YAML 1.1
%TAG !u! tag:unity3d.com,2011:
--- !u!114 &11400000
MonoBehaviour:
  m_ObjectHideFlags: 0
  m_CorrespondingSourceObject: {fileID: 0}
  m_PrefabInstance: {fileID: 0}
  m_PrefabAsset: {fileID: 0}
  m_GameObject: {fileID: 0}
  m_Enabled: 1
  m_EditorHideFlags: 0
  m_Script: {fileID: 11500000, guid: 9b3db8511d979ab4784138194d62aef2, type: 3}
  m_Name: EnemyYuka
  m_EditorClassIdentifier: 
  characterName: "\uC720\uCE74"
  description: "\uD14C\uC2A4\uD2B8\uC6A9 \uC801 1\uD638"
  sprite: {fileID: -1772946118, guid: 6f6a525a61999554a831134d845e92d0, type: 3}
  level: 1
  maxHP: 3
  maxMP: 3
  attack: 3
  maAttack: 3
  strength: 3
  magic: 3
  vitality: 3
  currentHP: 0
  currentMP: 0
  isMainCharacter: 0
  skills:
  - {fileID: 11400000, guid: b1038b347ced030419afdb45a4f77a53, type: 2}
  - {fileID: 11400000, guid: b4f1730ce33b8774294db34d2b45593b, type: 2}
